R34: /home/xdjf/mykobe/Log/4.7.2/20240909T090315_pipe_nnn26_Rn_1.01_factor_4_targetSizeY_0.03403
S34:/home/xdjf/mykobe/Log/4.7.2/20240915T093921_pipe_nnn26_Rn_0.04_factor_4_targetSizeY_0.03407
M34:/home/xdjf/mykobe/Log/4.7.2/20240915T111757_pipe_nnn26_Rn_0.21_factor_4_targetSizeY_0.03444
R17:/home/xdjf/mykobe/Log/4.7.2/20241002T145346_pipe_nnn26_Rn_1.01_factor_4_targetSizeY_0.03403_pressure17
R50:/home/xdjf/mykobe/Log/4.7.2/20241002T145324_pipe_nnn26_Rn_1.01_factor_4_targetSizeY_0.03403_pressure50
SN34:/home/xdjf/mykobe/Log/4.7.2/20241125T142707_pipe_nnn26_Rn_0.04_factor_4_targetSizeY_0.03407
SNN34:/home/xdjf/mykobe/Log/4.7.2/20241125T235015_pipe_nnn26_Rn_0.04_factor_4_targetSizeY_0.03407
U50RN34:/home/xdjf/mySPI/Log/5.1.2/20241210T100115_pipe_pipe_nnn26_Rn_1.01_factor_4_targetSizeY_0.03403_pressure34_Dr0.7
OLDU50RN34:/home/xdjf/mySPI/Log/5.1.2/20241207T005137_pipe_pipe_nnn26_Rn_1.01_factor_4_targetSizeY_0.03403_pressure34_Dr0.7